# t [fm/c]	T [GeV]	ax	ay	az	Lambda [GeV]
89
0.25	0.565645	1	1	1	0.565645
0.45	0.473077	1.1278	1.12883	0.751926	0.475853
0.65	0.424994	1.20448	1.20873	0.754623	0.410034
0.85	0.392708	1.22692	1.23624	0.7818	0.371078
1.05	0.368465	1.21693	1.23249	0.801978	0.347211
1.25	0.349056	1.19235	1.21469	0.813986	0.331113
1.45	0.332819	1.16275	1.19197	0.820376	0.319118
1.65	0.318851	1.13275	1.16862	0.823382	0.309439
1.85	0.306557	1.10429	1.14638	0.824348	0.301133
2.05	0.295576	1.0781	1.12584	0.824118	0.293718
2.25	0.28565	1.05435	1.1071	0.823185	0.28692
2.45	0.276583	1.0329	1.09	0.821809	0.280578
2.65	0.268237	1.01353	1.07433	0.820145	0.274599
2.85	0.260523	0.996047	1.05987	0.818307	0.268946
3.05	0.253346	0.980178	1.04639	0.816311	0.263573
3.25	0.246648	0.965716	1.03371	0.814185	0.258465
3.45	0.240377	0.95247	1.02165	0.811932	0.253607
3.65	0.234484	0.940261	1.01011	0.809548	0.248979
3.85	0.228945	0.928986	0.998968	0.80706	0.24458
4.05	0.223727	0.918531	0.988164	0.804467	0.240396
4.25	0.218817	0.908819	0.977637	0.801795	0.236429
4.45	0.214167	0.89973	0.967346	0.799011	0.232643
4.65	0.209781	0.891239	0.957268	0.796167	0.229051
4.85	0.205642	0.883299	0.947387	0.793277	0.225641
5.05	0.201728	0.875859	0.937695	0.790338	0.222398
5.25	0.198035	0.868886	0.928189	0.787386	0.219322
5.45	0.194549	0.862359	0.918883	0.784439	0.216403
5.65	0.191259	0.856253	0.909783	0.781512	0.21363
5.85	0.188152	0.85054	0.900901	0.778619	0.210993
6.05	0.18522	0.845207	0.892257	0.775787	0.208484
6.25	0.182446	0.840224	0.883876	0.77302	0.206087
6.45	0.179826	0.835595	0.875778	0.770351	0.203796
6.65	0.177359	0.831328	0.867982	0.767813	0.201613
6.85	0.175033	0.827401	0.860516	0.765427	0.199525
7.05	0.172828	0.823787	0.853403	0.763192	0.197511
7.25	0.170753	0.820522	0.846657	0.761153	0.195581
7.45	0.16878	0.817555	0.840306	0.759296	0.193704
7.65	0.166917	0.814914	0.834363	0.757667	0.191892
7.85	0.165149	0.812578	0.828841	0.756269	0.190128
8.05	0.163468	0.810542	0.823756	0.755113	0.188405
8.25	0.161874	0.808813	0.819113	0.754218	0.186726
8.45	0.160356	0.807371	0.814911	0.753583	0.18508
8.65	0.158906	0.806212	0.811145	0.753207	0.18346
8.85	0.157524	0.80534	0.807807	0.753094	0.181872
9.05	0.156203	0.804722	0.804895	0.75324	0.180308
9.25	0.154932	0.804335	0.8024	0.75363	0.178761
9.45	0.153712	0.804195	0.800289	0.754261	0.177236
9.65	0.152532	0.80427	0.798546	0.755116	0.175723
9.85	0.151399	0.804561	0.797161	0.756192	0.174235
10.05	0.150303	0.805025	0.79612	0.757468	0.172763
10.25	0.149243	0.805656	0.795389	0.758937	0.171311
10.45	0.148198	0.806414	0.794964	0.760567	0.169856
10.65	0.147193	0.807342	0.794806	0.762366	0.168432
10.85	0.146212	0.808387	0.794911	0.764308	0.167022
11.05	0.14526	0.809556	0.795245	0.766389	0.165636
11.25	0.144334	0.810838	0.795791	0.768593	0.164271
11.45	0.143417	0.812181	0.796551	0.770896	0.162912
11.65	0.14253	0.813629	0.797478	0.773305	0.161582
11.85	0.141656	0.815142	0.798574	0.775798	0.160265
12.05	0.1408	0.81672	0.799816	0.778366	0.15897
12.25	0.139963	0.818369	0.801191	0.781003	0.157697
12.45	0.139138	0.820055	0.802695	0.783694	0.15644
12.65	0.138338	0.821809	0.804297	0.786438	0.155214
12.85	0.137559	0.823612	0.805988	0.789231	0.154016
13.05	0.136797	0.825459	0.807757	0.792066	0.152844
13.25	0.136057	0.827351	0.809594	0.794937	0.151701
13.45	0.135345	0.829313	0.811485	0.797844	0.150595
13.65	0.134635	0.831264	0.813443	0.80076	0.149499
13.85	0.133942	0.833248	0.815446	0.803694	0.148428
14.05	0.133261	0.835252	0.817488	0.806635	0.147377
14.25	0.13258	0.837242	0.819575	0.809567	0.146333
14.45	0.131929	0.839277	0.821673	0.812521	0.14533
14.65	0.131278	0.841289	0.823802	0.815461	0.144335
14.85	0.130642	0.843313	0.825946	0.818397	0.143364
15.05	0.130005	0.845297	0.828112	0.821314	0.1424
15.25	0.129379	0.847278	0.830288	0.824226	0.141455
15.45	0.128756	0.849242	0.832473	0.827121	0.140521
15.65	0.128153	0.851224	0.834654	0.830017	0.139616
15.85	0.127555	0.853183	0.836839	0.832896	0.138724
16.05	0.126951	0.855104	0.839033	0.835736	0.137832
16.25	0.126352	0.857009	0.841223	0.838557	0.136954
16.45	0.125762	0.858912	0.843405	0.841362	0.136091
16.65	0.125176	0.860803	0.845578	0.844145	0.13524
16.85	0.124601	0.862695	0.847739	0.846915	0.134407
17.05	0.124017	0.864535	0.849896	0.849644	0.13357
17.25	0.12344	0.866368	0.85204	0.852352	0.132748
17.45	0.122862	0.868185	0.85417	0.855015	0.131931
17.65	0.122289	0.869989	0.856287	0.857657	0.131125
17.85	0.12172	0.87178	0.858388	0.86028	0.130329
