# t [fm/c]	T [GeV]	ax	ay	az	Lambda [GeV]
60
0.25	0.470593	0.999991	0.999996	0.99999	0.470593
0.45	0.394418	1.11016	1.1115	0.721603	0.4041
0.65	0.354499	1.18221	1.1877	0.704029	0.351245
0.85	0.327271	1.20838	1.22036	0.723376	0.317513
1.05	0.306364	1.20238	1.22224	0.741302	0.295849
1.25	0.289247	1.17921	1.20742	0.752736	0.280884
1.45	0.27465	1.1483	1.18459	0.758626	0.269681
1.65	0.261889	1.11488	1.15844	0.760579	0.260716
1.85	0.250529	1.0816	1.13128	0.759806	0.253145
2.05	0.240308	1.04979	1.10423	0.757184	0.246515
2.25	0.231065	1.02003	1.07785	0.753327	0.240583
2.45	0.222679	0.992516	1.05232	0.748635	0.235208
2.65	0.215034	0.967191	1.0277	0.743326	0.230285
2.85	0.208073	0.943943	1.00398	0.737607	0.225778
3.05	0.201724	0.922588	0.981132	0.731589	0.221638
3.25	0.195956	0.903001	0.959151	0.725417	0.217858
3.45	0.190703	0.885026	0.938034	0.719168	0.214388
3.65	0.185931	0.868521	0.91781	0.712959	0.211208
3.85	0.181591	0.853374	0.898539	0.706884	0.208277
4.05	0.177636	0.839482	0.880345	0.701049	0.205551
4.25	0.174054	0.826893	0.863211	0.695607	0.203022
4.45	0.170786	0.815545	0.847217	0.690642	0.20063
4.65	0.167796	0.805437	0.832475	0.686256	0.198331
4.85	0.165064	0.796547	0.819036	0.682549	0.196111
5.05	0.162532	0.788793	0.806961	0.679552	0.193909
5.25	0.160185	0.782157	0.796234	0.67731	0.19172
5.45	0.158007	0.776594	0.78681	0.675831	0.189543
5.65	0.155967	0.772	0.778679	0.675098	0.187357
5.85	0.15407	0.76831	0.771726	0.675083	0.185192
6.05	0.152264	0.765414	0.765959	0.675724	0.183
6.25	0.15056	0.763273	0.761247	0.676988	0.180816
6.45	0.148923	0.761753	0.757545	0.678804	0.178614
6.65	0.147363	0.760818	0.754755	0.681126	0.176425
6.85	0.14588	0.760416	0.752753	0.683908	0.174265
7.05	0.144438	0.760446	0.751524	0.687081	0.172102
7.25	0.143047	0.760878	0.750943	0.690605	0.169961
7.45	0.141709	0.761687	0.750934	0.694438	0.167857
7.65	0.140407	0.762803	0.751461	0.698532	0.165778
7.85	0.139152	0.764211	0.752425	0.702855	0.163743
8.05	0.137917	0.765834	0.753816	0.707361	0.161726
8.25	0.136746	0.767729	0.755511	0.712035	0.159787
8.45	0.135579	0.769763	0.757556	0.716832	0.157858
8.65	0.134432	0.771941	0.759887	0.72173	0.155959
8.85	0.133314	0.774258	0.762446	0.726709	0.154106
9.05	0.132218	0.776688	0.765199	0.731746	0.152293
9.25	0.131145	0.779224	0.768122	0.736827	0.150523
9.45	0.130102	0.781867	0.771179	0.741941	0.148804
9.65	0.129067	0.784551	0.774376	0.747058	0.147111
9.85	0.128053	0.7873	0.777666	0.752178	0.145461
10.05	0.127055	0.790096	0.781028	0.75729	0.143848
10.25	0.126069	0.792918	0.784464	0.762377	0.142267
10.45	0.125094	0.79575	0.787971	0.767427	0.140717
10.65	0.124128	0.798596	0.791504	0.77244	0.139196
10.85	0.123184	0.801475	0.795065	0.777417	0.137719
11.05	0.122254	0.804365	0.798641	0.78235	0.136275
11.25	0.12133	0.80725	0.802221	0.787226	0.134856
11.45	0.120422	0.810151	0.805784	0.792052	0.13347
11.65	0.11953	0.81306	0.809342	0.796822	0.13212
11.85	0.118643	0.815946	0.81289	0.801523	0.130792
12.05	0.117761	0.818809	0.816403	0.806157	0.129485
