# t [fm/c] 	 T [GeV] (0,0) fm/c
0.25	0.629598
0.45	0.526283
0.65	0.472962
0.85	0.437596
1.05	0.411448
1.25	0.390859
1.45	0.373954
1.65	0.35965
1.85	0.347258
2.05	0.336329
2.25	0.326547
2.45	0.317681
2.65	0.30956
2.85	0.302056
3.05	0.295064
3.25	0.288502
3.45	0.282306
3.65	0.276421
3.85	0.270805
4.05	0.265421
4.25	0.260238
4.45	0.255231
4.65	0.250379
4.85	0.245664
5.05	0.241072
5.25	0.23659
5.45	0.23221
5.65	0.227926
5.85	0.223734
6.05	0.219633
6.25	0.215623
6.45	0.211709
6.65	0.207894
6.85	0.204193
7.05	0.2006
7.25	0.19713
7.45	0.193789
7.65	0.190585
7.85	0.187522
8.05	0.184602
8.25	0.181827
8.45	0.179194
8.65	0.176699
8.85	0.174337
9.05	0.1721
9.25	0.16998
9.45	0.167969
9.65	0.16606
9.85	0.164243
10.05	0.162511
10.25	0.160857
10.45	0.159274
10.65	0.157756
10.85	0.156299
11.05	0.154897
11.25	0.153546
11.45	0.152241
11.65	0.150979
11.85	0.149758
12.05	0.148573
12.25	0.147422
12.45	0.146302
12.65	0.145211
12.85	0.144147
13.05	0.143108
13.25	0.142091
13.45	0.141095
13.65	0.140119
13.85	0.13916
14.05	0.138218
14.25	0.137292
14.45	0.136379
14.65	0.135481
14.85	0.134594
15.05	0.133719
15.25	0.132856
15.45	0.132002
15.65	0.131158
15.85	0.130323
16.05	0.129497
16.25	0.128679
16.45	0.127869
16.65	0.127067
16.85	0.126272
17.05	0.125483
17.25	0.124701
17.45	0.123926
17.65	0.123157
17.85	0.122393
