# t [fm/c] 	 T [GeV] (0,0) fm/c
0.25	0.180304
0.45	0.163633
0.65	0.155521
0.85	0.150033
1.05	0.145745
1.25	0.142118
1.45	0.138892
1.65	0.13592
1.85	0.133117
2.05	0.130424
2.25	0.127802
2.45	0.125222
2.65	0.122662
