# t [fm/c] 	 T [GeV] (0,0) fm/c
0.25	0.538268
0.45	0.450693
0.65	0.405255
0.85	0.374648
1.05	0.35149
1.25	0.332708
1.45	0.316749
1.65	0.302729
1.85	0.290116
2.05	0.278578
2.25	0.267911
2.45	0.257976
2.65	0.248684
2.85	0.239978
3.05	0.231822
3.25	0.224188
3.45	0.217057
3.65	0.210416
3.85	0.204271
4.05	0.198682
4.25	0.193485
4.45	0.188633
4.65	0.184144
4.85	0.179989
5.05	0.176136
5.25	0.172576
5.45	0.169245
5.65	0.166148
5.85	0.163261
6.05	0.160577
6.25	0.158061
6.45	0.155725
6.65	0.153553
6.85	0.151518
7.05	0.149608
7.25	0.147805
7.45	0.146089
7.65	0.144456
7.85	0.142893
8.05	0.141383
8.25	0.139916
8.45	0.138482
8.65	0.137077
8.85	0.135699
9.05	0.134345
9.25	0.133016
9.45	0.131712
9.65	0.130433
9.85	0.12918
10.05	0.127954
10.25	0.126753
10.45	0.125577
10.65	0.124425
10.85	0.123293
11.05	0.12218
11.25	0.121083
11.45	0.119999
11.65	0.11892
11.85	0.117856
12.05	0.116799
