0	0
0.0001	0.15532113675054338
0.0011	0.5151440613476314
0.0021	0.711773825240603
0.0031	0.8647950896245169
0.0041	0.9945446768613667
0.0051	1.10921940160078
0.0061	1.2131019112946253
0.0071	1.3087646134059376
0.0081	1.3978960545416237
0.0091	1.4816753845669932
0.0101	1.5609646091770755
0.011099999999999999	1.6364165352793036
0.0121	1.7085396228177034
0.0131	1.777739072113156
0.0141	1.8443439956470815
0.015099999999999999	1.9086260346193336
0.0161	1.9708124988852371
0.0171	2.031095879442463
0.0181	2.0896408871396925
0.0191	2.146589761206591
0.0201	2.2020663406496612
0.0211	2.2561792336431195
0.022099999999999998	2.3090243177624648
0.0231	2.3606867360390407
0.0241	2.411242507795436
0.0251	2.4607598414078757
0.0261	2.5093002137586597
0.0271	2.556919265141262
0.0281	2.603667546775085
0.0291	2.64959114955633
0.0301	2.6947322363238695
0.0311	2.7391294951420915
0.032100000000000004	2.7828185274700123
0.033100000000000004	2.825832182296419
0.034100000000000005	2.8682008451593495
0.035100000000000006	2.9099526892790655
0.03610000000000001	2.9511138947033517
0.0371	2.9917088403083354
0.0381	3.0317602726545068
0.0391	3.071289455019257
0.040100000000000004	3.110316299378274
0.041100000000000005	3.1488594836612194
0.042100000000000005	3.1869365562413825
0.043100000000000006	3.224564029318012
0.0441	3.261757462601265
0.0451	3.2985315385028557
0.0461	3.334900129863043
0.0471	3.3708763610999806
0.048100000000000004	3.406472663545736
0.049100000000000005	3.4417008256305124
0.050100000000000006	3.4765720384894636
0.051100000000000007	3.5110969374922547
0.05210000000000001	3.5452856401322443
0.0531	3.5791477806578507
0.0541	3.612692541782081
0.0551	3.6459286837659723
0.056100000000000004	3.6788645711369736
0.057100000000000005	3.7115081972731727
0.058100000000000006	3.7438672070580803
0.05910000000000001	3.7759489177878955
0.0601	3.807760338493232
0.0611	3.839308187819836
0.0621	3.870598910597505
0.0631	3.901638693212964
0.0641	3.932433477890554
0.0651	3.9629889759740786
0.0661	3.9933106802939333
0.0671	4.023403876695327
0.06810000000000001	4.053273654796113
0.06910000000000001	4.082924918036257
0.07010000000000001	4.112362393075102
0.07110000000000001	4.141590638587457
0.07210000000000001	4.170614053504837
0.0731	4.199436884744037
0.0741	4.228063234461527
0.0751	4.256497066868689
0.0761	4.284742214640002
0.0771	4.312802384943506
0.0781	4.340681165120356
0.0791	4.368382028038149
0.0801	4.395908337140658
0.0811	4.423263351214652
0.0821	4.45045022889309
0.08310000000000001	4.4774720329121385
0.08410000000000001	4.504331734138383
0.08510000000000001	4.531032215381142
0.08610000000000001	4.557576275003784
0.08710000000000001	4.58396663034679
0.0881	4.610205920974504
0.0891	4.6362967117564615
0.0901	4.662241495793537
0.0911	4.688042697198315
0.0921	4.713702673738523
0.0931	4.7392237193516085
0.0941	4.76460806653811
0.0951	4.789857888640867
0.0961	4.814975302016637
0.0971	4.839962368106306
0.0981	4.864821095409386
0.09910000000000001	4.889553441368148
0.10010000000000001	4.914161314166437
0.10110000000000001	4.938646574447784
0.10210000000000001	4.963011036957265
0.10310000000000001	4.9872564721111345
0.10410000000000001	5.011384607498126
0.1051	5.035397129316001
0.1061	5.0592956837467495
0.1071	5.083081878273565
0.1081	5.106757282942638
0.1091	5.130323431572541
0.1101	5.153781822913808
0.1111	5.177133921761276
0.1121	5.200381160021422
0.1131	5.223524937736986
0.11410000000000001	5.246566624070888
0.11510000000000001	5.269507558251433
0.11610000000000001	5.292349050480642
0.11710000000000001	5.3150923828074434
0.11810000000000001	5.337738809967382
0.11910000000000001	5.3602895601904095
0.1201	5.382745835978189
0.1211	5.405108814852368
0.1221	5.427379650075069
0.1231	5.4495594713429085
0.1241	5.471649385455666
0.1251	5.493650476960788
0.1261	5.51556380877473
0.1271	5.537390422782173
0.1281	5.559131340414061
0.1291	5.5807875632053845
0.1301	5.602360073333556
0.1311	5.623849834138176
0.1321	5.645257790623029
0.1331	5.666584869940979
0.1341	5.687831981862507
0.1351	5.709000019228583
0.1361	5.730089858388429
0.1371	5.751102359622878
0.1381	5.772038367553854
0.1391	5.792898711540507
0.1401	5.813684206062583
0.1411	5.834395651091501
0.1421	5.855033832449585
0.1431	5.875599522157985
0.1441	5.896093478773633
0.14509999999999998	5.91651644771573
0.14609999999999998	5.936869161582099
0.14709999999999998	5.957152340455828
0.14809999999999998	5.977366692202522
0.14909999999999998	5.997512912758579
0.15009999999999998	6.017591686410739
0.15109999999999998	6.037603686067296
0.15209999999999999	6.0575495735212215
0.15309999999999999	6.077429999705537
0.1541	6.09724560494118
0.1551	6.116997019177648
0.1561	6.1366848622266685
0.1571	6.156309743989138
0.1581	6.175872264675597
0.1591	6.1953730150203965
0.1601	6.214812576489863
0.1611	6.234191521484579
0.1621	6.253510413536053
0.1631	6.272769807497918
0.1641	6.291970249731882
0.1651	6.311112278288564
0.1661	6.33019642308343
0.1671	6.349223206067952
0.1681	6.368193141396187
0.1691	6.387106735586856
0.1701	6.4059644876811905
0.1711	6.424766889396539
0.1721	6.443514425275977
0.1731	6.462207572834003
0.1741	6.480846802698444
0.1751	6.499432578748716
0.17609999999999998	6.517965358250507
0.17709999999999998	6.536445591987066
0.17809999999999998	6.554873724387117
0.17909999999999998	6.573250193649572
0.18009999999999998	6.5915754318651025
0.18109999999999998	6.60984986513469
0.18209999999999998	6.628073913685226
0.18309999999999998	6.6462479919822455
0.18409999999999999	6.664372508839935
0.1851	6.682447867528406
0.1861	6.700474465878392
0.1871	6.71845269638343
0.1881	6.736382946299537
0.1891	6.7542655977425605
0.1901	6.772101027783182
0.1911	6.789889608539705
0.1921	6.807631707268604
0.1931	6.82532768645303
0.1941	6.84297790388919
0.1951	6.860582712770763
0.1961	6.878142461771377
0.1971	6.895657495125162
0.1981	6.913128152705484
0.1991	6.9305547701019234
0.2001	6.947937678695449
0.2011	6.965277205731961
0.2021	6.982573674394179
0.2031	6.999827403871894
0.2041	7.017038709430732
0.2051	7.034207902479329
0.2061	7.051335290635096
0.2071	7.068421177788523
0.2081	7.0854658641660695
0.20909999999999998	7.102469646391731
0.21009999999999998	7.119432817547281
0.21109999999999998	7.136355667231178
0.21209999999999998	7.153238481616272
0.21309999999999998	7.170081543506261
0.21409999999999998	7.186885132390975
0.21509999999999999	7.203649524500462
0.2161	7.22037499285799
0.2171	7.2370618073319175
0.2181	7.253710234686496
0.2191	7.270320538631625
0.2201	7.286892979871607
0.2211	7.303427816152865
0.2221	7.319925302310718
0.2231	7.336385690315219
0.2241	7.352809229316042
0.2251	7.369196165686487
0.2261	7.3855467430666035
0.2271	7.401861202405439
0.2281	7.418139782002506
0.2291	7.434382717548339
0.2301	7.450590242164353
0.2311	7.466762586441859
0.2321	7.482899978480342
0.2331	7.499002643925015
0.2341	7.5150708060036
0.2351	7.531104685562457
0.2361	7.547104501101995
0.2371	7.563070468811411
0.2381	7.579002802602756
0.2391	7.594901714144407
0.24009999999999998	7.6107674128938445
0.24109999999999998	7.626600106129861
0.24209999999999998	7.642399998984169
0.24309999999999998	7.658167294472384
0.24409999999999998	7.6739021935244685
0.24509999999999998	7.689604895014622
0.24609999999999999	7.705275595790589
0.2471	7.720914490702461
0.2481	7.736521772630926
0.2491	7.75209763251506
0.2501	7.7676422593795325
0.2511	7.78315584036141
0.2521	7.798638560736425
0.2531	7.81409060394479
0.2541	7.829512151616567
0.2551	7.844903383596552
0.2561	7.860264477968778
0.2571	7.8755956110805325
0.2581	7.890896957565984
0.2591	7.906168690369391
0.2601	7.9214109807679085
0.2611	7.936623998394001
0.2621	7.951807911257459
0.2631	7.966962885767065
0.2641	7.9820890867518495
0.2651	7.997186677482037
0.2661	8.012255819689562
0.2671	8.027296673588337
0.2681	8.042309397894087
0.2691	8.057294149843896
0.2701	8.072251085215438
0.2711	8.087180358345854
0.2721	8.102082122150335
0.2731	8.11695652814041
0.2741	8.131803726441898
0.2751	8.146623865812602
0.2761	8.161417093659686
0.2771	8.176183556056806
0.2781	8.19092339776089
0.2791	8.20563676222875
0.2801	8.220323791633335
0.2811	8.23498462687977
0.2821	8.249619407621134
0.2831	8.264228272273964
0.2841	8.278811358033558
0.2851	8.29336880088897
0.2861	8.307900735637832
0.2871	8.322407295900915
0.2881	8.336888614136443
0.28909999999999997	8.351344821654232
0.29009999999999997	8.365776048629565
0.29109999999999997	8.38018242411686
0.29209999999999997	8.394564076063165
0.29309999999999997	8.408921131321387
0.2941	8.42325371566335
0.2951	8.437561953792667
0.2961	8.451845969357379
0.2971	8.466105884962442
0.2981	8.480341822181977
0.2991	8.494553901571393
0.3001	8.508742242679284
0.3011	8.522906964059151
0.3021	8.53704818328098
0.3031	8.551166016942613
0.3041	8.565260580680963
0.3051	8.579331989183089
0.3061	8.59338035619705
0.3071	8.607405794542652
0.3081	8.621408416122014
0.3091	8.635388331929985
0.3101	8.649345652064417
0.3111	8.663280485736257
0.3121	8.677192941279554
0.3131	8.691083126161251
0.3141	8.704951146990885
0.3151	8.718797109530133
0.3161	8.73262111870222
0.3171	8.746423278601208
0.3181	8.76020369250111
0.3191	8.773962462864947
0.3201	8.787699691353604
0.3211	8.801415478834599
0.3221	8.815109925390738
0.3231	8.828783130328627
0.3241	8.84243519218707
0.3251	8.856066208745364
0.3261	8.86967627703145
0.3271	8.88326549333
0.3281	8.896833953190349
0.3291	8.910381751434318
0.3301	8.92390898216396
0.3311	8.937415738769216
0.3321	8.950902113935372
0.3331	8.964368199650533
0.3341	8.977814087212924
0.3351	8.991239867238104
0.3361	9.004645629666106
0.3371	9.018031463768459
0.3381	9.031397458155134
0.3391	9.044743700781353
0.3401	9.058070278954398
0.3411	9.071377279340222
0.3421	9.084664787970059
0.3431	9.097932890246888
0.3441	9.11118167095186
0.3451	9.124411214250603
0.3461	9.137621603699467
0.3471	9.15081292225167
0.3481	9.163985252263409
0.3491	9.177138675499801
0.3501	9.190273273140862
0.3511	9.20338912578732
0.35209999999999997	9.21648631346639
0.35309999999999997	9.22956491563748
0.35409999999999997	9.242625011197811
0.35509999999999997	9.255666678487957
0.35609999999999997	9.268689995297363
0.3571	9.281695038869698
0.3581	9.294681885908275
0.3591	9.307650612581265
0.3601	9.320601294526945
0.3611	9.33353400685884
0.3621	9.346448824170782
0.3631	9.35934582054197
0.3641	9.372225069541889
0.3651	9.385086644235228
0.3661	9.397930617186713
0.3671	9.410757060465881
0.3681	9.423566045651796
0.3691	9.436357643837715
0.3701	9.44913192563568
0.3711	9.461888961181085
0.3721	9.474628820137148
0.3731	9.487351571699365
0.3741	9.500057284599894
0.3751	9.512746027111861
0.3761	9.525417867053681
0.3771	9.538072871793258
0.3781	9.550711108252177
0.3791	9.56333264290982
0.3801	9.575937541807459
0.3811	9.588525870552283
0.3821	9.601097694321389
0.3831	9.613653077865688
0.3841	9.626192085513848
0.3851	9.638714781176088
0.3861	9.651221228348014
0.3871	9.663711490114364
0.3881	9.67618562915271
0.3891	9.688643707737137
0.3901	9.701085787741874
0.3911	9.713511930644875
0.3921	9.725922197531366
0.3931	9.738316649097335
0.3941	9.750695345653012
0.3951	9.763058347126288
0.3961	9.7754057130661
0.3971	9.787737502645761
0.3981	9.800053774666305
0.3991	9.812354587559717
0.4001	9.824639999392202
0.4011	9.836910067867358
0.4021	9.849164850329347
0.4031	9.861404403766034
0.4041	9.873628784812054
0.4051	9.885838049751882
0.4061	9.898032254522873
0.4071	9.910211454718215
0.4081	9.922375705589918
0.4091	9.934525062051732
0.4101	9.94665957868203
0.4111	9.958779309726667
0.4121	9.970884309101825
0.4131	9.982974630396793
0.4141	9.995050326876743
0.4151	10.007111451485484
0.4161	10.019158056848132
0.41709999999999997	10.031190195273833
0.41809999999999997	10.043207918758368
0.4191	10.05521127898682
0.4201	10.067200327336135
0.4211	10.079175114877689
0.4221	10.091135692379858
0.4231	10.103082110310478
0.4241	10.11501441883938
0.4251	10.126932667840817
0.4261	10.138836906895905
0.4271	10.150727185295024
0.4281	10.162603552040219
0.4291	10.174466055847518
0.4301	10.186314745149316
0.4311	10.198149668096626
0.4321	10.209970872561406
0.4331	10.221778406138792
0.4341	10.233572316149342
0.4351	10.245352649634997
0.4361	10.257119453386725
0.4371	10.268872773907827
0.4381	10.280612657442452
0.4391	10.29233914997101
0.4401	10.304052297212278
0.4411	10.315752144625462
0.4421	10.327438737412272
0.4431	10.33911212051896
0.4441	10.350772338638322
0.4451	10.362419436211697
0.4461	10.374053457430964
0.4471	10.385674446240484
0.4481	10.397282446339014
0.4491	10.408877501181674
0.4501	10.4204596539818
0.4511	10.432028947712833
0.4521	10.443585425110218
0.4531	10.455129128673171
0.4541	10.466660100666584
0.4551	10.478178383122765
0.4561	10.489684017843263
0.4571	10.501177046400633
0.4581	10.512657510140158
0.4591	10.524125450181648
0.4601	10.535580907421092
0.4611	10.547023922532377
0.4621	10.558454535969014
0.4631	10.569872787965759
0.4641	10.581278718540267
0.4651	10.59267236749477
0.4661	10.60405377441765
0.4671	10.615422978685078
0.4681	10.626780019462574
0.4691	10.63812493570661
0.4701	10.649457766166151
0.4711	10.660778549384196
0.4721	10.672087323699321
0.4731	10.683384127247194
0.4741	10.694668997962063
0.4751	10.705941973578238
0.4761	10.717203091631589
0.4771	10.728452389460982
0.4781	10.739689904209731
0.4791	10.750915672827023
0.48009999999999997	10.762129732069342
0.48109999999999997	10.773332118501878
0.4821	10.784522868499906
0.4831	10.795702018250163
0.4841	10.806869603752224
0.4851	10.818025660819856
0.4861	10.82917022508235
0.4871	10.840303331985835
0.4881	10.85142501679463
0.4891	10.862535314592506
0.4901	10.873634260284021
0.4911	10.884721888595752
0.4921	10.895798234077597
0.4931	10.906863331104022
0.4941	10.917917213875295
0.4951	10.928959916418744
0.4961	10.93999147258994
0.4971	10.951011916073947
0.4981	10.962021280386503
0.4991	10.97301959887521
0.5001	10.98400690472072
0.5011	10.994983230937892
0.5021	11.005948610376961
0.5031	11.016903075724665
0.5041	11.0278466595054
0.5051	11.038779394082361
0.5061	11.049701311658625
0.5071	11.060612444278265
0.5081	11.071512823827472
0.5091	11.082402482035619
0.5101	11.093281450476328
0.5111	11.104149760568571
0.5121	11.115007443577712
0.5131	11.125854530616552
0.5141	11.136691052646375
0.5151	11.147517040477974
0.5161	11.158332524772675
0.5171	11.16913753604336
0.5181	11.179932104655448
0.5191	11.190716260827925
0.5201	11.201490034634293
0.5211	11.212253456003587
0.5221	11.223006554721302
0.5231	11.233749360430393
0.5241	11.244481902632208
0.5251	11.255204210687431
0.5261	11.26591631381704
0.5271	11.276618241103225
0.5281	11.28731002149028
0.5291	11.297991683785568
0.5301	11.308663256660392
0.5311	11.319324768650892
0.5321	11.329976248158978
0.5331	11.340617723453143
0.5341	11.351249222669393
0.5351	11.361870773812093
0.5361	11.372482404754837
0.5371	11.383084143241287
0.5381	11.393676016886044
0.5391	11.40425805317545
0.5401	11.41483027946846
0.5411	11.425392722997442
0.5421	11.435945410869007
0.5431	11.4464883700648
0.5441	11.457021627442348
0.5451	11.467545209735807
0.5461	11.478059143556786
0.5471	11.48856345539513
0.5481	11.499058171619685
0.5491	11.509543318479077
0.5501	11.520018922102482
0.5511	11.530485008500383
0.5521	11.540941603565333
0.5531	11.55138873307266
0.5541	11.561826422681277
0.5551	11.572254697934357
0.5561	11.582673584260107
0.5571	11.593083106972438
0.5581	11.603483291271747
0.5591	11.613874162245583
0.5601	11.624255744869368
0.5611	11.634628064007092
0.5621	11.644991144412018
0.5631	11.655345010727357
0.5641	11.665689687486983
0.5651	11.676025199116053
0.5661	11.686351569931738
0.5671	11.696668824143856
0.5681	11.706976985855558
0.5691	11.717276079063957
0.5701	11.727566127660802
0.5711	11.737847155433126
0.5721	11.748119186063846
0.5731	11.758382243132463
0.5741	11.768636350115639
0.5751000000000001	11.778881530387855
0.5761000000000001	11.789117807222016
0.5771	11.799345203790063
0.5781	11.809563743163617
0.5791	11.819773448314516
0.5801	11.82997434211551
0.5811	11.840166447340765
0.5821	11.850349786666516
0.5831	11.860524382679946
0.5841	11.87069025784931
0.5851	11.880847434566752
0.5861	11.890995935122689
0.5871	11.901135781712485
0.5881	11.911266996437032
0.5891	11.921389601303328
0.5901	11.93150361822499
0.5911	11.941609069022853
0.5921	11.95170597542551
0.5931	11.961794359069826
0.5941	11.971874241501519
0.5951	11.981945644175678
0.5961	11.99200858845729
0.5971	12.00206309562178
0.5981	12.012109186855534
0.5991	12.022146883256422
0.6001	12.032176205834299
0.6011	12.042197175511536
0.6021	12.052209813123524
0.6031	12.062214139419176
0.6041	12.072210175061429
0.6051	12.08219794062776
0.6061	12.092177456610642
0.6071	12.102148743418066
0.6081	12.112111821374018
0.6091	12.12206671071897
0.6101	12.132013431610348
0.6111	12.141952004123011
0.6121	12.15188244824972
0.6131	12.161804783901623
0.6141	12.171719030908713
0.6151	12.18162520902027
0.6161	12.19152333790535
0.6171	12.201413437153242
0.6181	12.211295526273874
0.6191	12.22116962469833
0.6201	12.231035751779233
0.6211	12.240893926791234
0.6221	12.25074416893141
0.6231	12.260586497319759
0.6241	12.270420930999562
0.6251	12.280247488937858
0.6261	12.290066190025863
0.6271	12.2998770530794
0.6281	12.309680096839289
0.6291	12.319475339971802
0.6301	12.329262801069058
0.6311	12.339042498649443
0.6321	12.348814451158
0.6331	12.358578676966864
0.6341	12.368335194375646
0.6351	12.378084021611832
0.6361	12.387825176831194
0.6371	12.397558678118173
0.6381	12.407284543486256
0.6391	12.417002790878419
0.6401	12.426713438167452
0.6411	12.43641650315636
0.6421	12.446112003578783
0.6431	12.455799957099313
0.6441	12.465480381313913
0.6451	12.475153293750262
0.6461	12.48481871186815
0.6471	12.494476653059836
0.6481	12.504127134650359
0.6491	12.513770173897994
0.6501	12.523405787994625
0.6511	12.533033994066022
0.6521	12.542654809172197
0.6531	12.552268250307796
0.6541	12.561874334402424
0.6551	12.571473078329205
0.6561	12.581064498873411
0.6571	12.590648612778894
0.6581	12.600225436718604
0.6591	12.609794987301244
0.6601	12.619357281074507
0.6611	12.628912334522449
0.6621	12.638460164066858
0.6631	12.6480007860675
0.6641	12.657534216822514
0.6651	12.667060472568684
0.6661	12.676579569481804
0.6671	12.686091523676959
0.6681	12.695596351208897
0.6691	12.705094068068197
0.6701	12.714584690190568
0.6711	12.72406823345549
0.6721	12.73354471367973
0.6731	12.743014146621286
0.6741	12.752476547979633
0.6751	12.76193193339603
0.6761	12.771380318453863
0.6771	12.780821718678876
0.6781	12.79025614953954
0.6791	12.799683626447306
0.6801	12.8091041647102
0.6811	12.818517779674213
0.6821	12.827924486585733
0.6831	12.837324300633636
0.6841	12.846717236951232
0.6851	12.856103310616533
0.6861	12.865482536652527
0.6871	12.874854930027496
0.6881	12.884220505655241
0.6891	12.893579278395407
0.6901	12.90293126297272
0.6911	12.912276474048124
0.6921	12.921614926510847
0.6931	12.93094663501994
0.6941	12.940271614181556
0.6951	12.949589878549189
0.6961	12.958901442623953
0.6971	12.968206320854856
0.6981	12.977504527639022
0.6991	12.986796077322014
0.7001000000000001	12.99608098419802
0.7011000000000001	13.00535926184798
0.7021000000000001	13.014630924677839
0.7031000000000001	13.023895987373502
0.7041	13.03315446408491
0.7051	13.04240636891152
0.7061	13.051651715902562
0.7071	13.060890519057258
0.7081	13.07012279232512
0.7091	13.079348549606157
0.7101	13.088567804751147
0.7111	13.097780571561856
0.7121	13.106986860524943
0.7131	13.116186687744019
0.7141	13.1253800681364
0.7151	13.134567015526946
0.7161	13.143747543691207
0.7171	13.152921666355669
0.7181	13.162089397197954
0.7191	13.171250749847147
0.7201	13.180405737883945
0.7211	13.189554374840963
0.7221	13.198696674202955
0.7231	13.207832637562515
0.7241	13.216962288794077
0.7251	13.226085643914733
0.7261	13.23520271690581
0.7271	13.244313521697238
0.7281	13.253418072167761
0.7291	13.262516382145256
0.7301	13.271608465406949
0.7311	13.28069433567972
0.7321	13.289774006640316
0.7331	13.298847491915621
0.7341	13.307914771677648
0.7351	13.316975889694964
0.7361	13.326030866228376
0.7371	13.335079716579441
0.7381	13.344122455988474
0.7391	13.35315909963484
0.7401	13.36218966263735
0.7411	13.371214160054572
0.7421	13.380232606885182
0.7431	13.389245018068262
0.7441	13.39825140848367
0.7451	13.407251718609622
0.7461	13.416246023333676
0.7471	13.425234359860731
0.7481	13.434216747280956
0.7491	13.443193204597518
0.7501	13.452163750727182
0.7511	13.461128404500837
0.7521	13.470087184664102
0.7531	13.479040109877849
0.7541	13.487987198718757
0.7551	13.49692846967988
0.7561	13.505863813124792
0.7571	13.514793314666809
0.7581	13.523717069147471
0.7591	13.532635103984886
0.7601	13.541547446457097
0.7611	13.550454123703235
0.7621	13.559355162724653
0.7631	13.568250590386079
0.7641	13.577140433416702
0.7651	13.586024718411345
0.7661	13.594903471831497
0.7671	13.603776564924651
0.7681	13.612643977805151
0.7691	13.621505962836299
0.7701	13.630362562987546
0.7711	13.639213820997702
0.7721	13.6480597793776
0.7731	13.656900480412618
0.7741	13.66573596616529
0.7751	13.674566278477842
0.7761	13.68339145897469
0.7771	13.6922115490649
0.7781	13.701026519564486
0.7791	13.709835955059454
0.7801	13.718640455449814
0.7811	13.727440089199012
0.7821	13.73623492441526
0.7831	13.745025028857615
0.7841	13.753810469942039
0.7851	13.762591314747313
0.7861	13.771367630020956
0.7871	13.780139482184982
0.7881	13.788906937341695
0.7891	13.79767006127933
0.7901	13.806428265958857
0.7911	13.815182063694511
0.7921	13.82393179808336
0.7931	13.832677574431905
0.7941	13.841419497583358
0.7951	13.850157671931129
0.7961	13.858892201432134
0.7971	13.867623189621284
0.7981	13.876350739619742
0.7991	13.885074954154389
0.8001	13.893795935566494
0.8011	13.90251344337624
0.8021	13.911227095725348
0.8031	13.919937890587798
0.8041	13.928645982685772
0.8051	13.937351526265942
0.8061	13.946054675127401
0.8071	13.954755582649417
0.8081	13.963454401818918
0.8091	13.972151285257853
0.8101	13.980846385250228
0.8111	13.989539853769367
0.8121	13.998231842504293
0.8131	14.006921377165023
0.8141	14.015609497575626
0.8151	14.024296707740803
0.8161	14.032983222571152
0.8171	14.041669256805358
0.8181	14.050355025063343
0.8191	14.059040741899352
0.8201	14.067726621854893
0.8211	14.076412879511786
0.8221	14.085099729545165
0.8231	14.093787386776587
0.8241	14.102475632695974
0.8251000000000001	14.111164051013375
0.8261000000000001	14.11985401025133
0.8271000000000001	14.12854579535087
0.8281000000000001	14.137239691851088
0.8291000000000001	14.145935985983645
0.8301000000000001	14.154634964767864
0.8311000000000001	14.163336916106559
0.8321000000000001	14.172042128882689
0.8331	14.180750893056938
0.8341	14.189463499766271
0.8351	14.198180241423591
0.8361	14.206900272578531
0.8371	14.215624776083832
0.8381	14.224354416573265
0.8391	14.233089559224693
0.8401	14.241830571491459
0.8411	14.250577823263777
0.8421	14.259331687033052
0.8431	14.268092538059275
0.8441	14.276860754541673
0.8451	14.28563671779302
0.8461	14.294420812417592
0.8471	14.303212998167801
0.8481	14.312013370099127
0.8491	14.32082311986164
0.8501	14.329642702386089
0.8511	14.338472577522248
0.8521	14.3473132103037
0.8531	14.356165071220634
0.8541	14.365028636500352
0.8551	14.373904388396552
0.8561	14.382792815487695
0.8571	14.391694412985018
0.8581	14.400609634022056
0.8591	14.409538373740526
0.8601	14.418481845895139
0.8611	14.427440610509908
0.8621	14.436415236584232
0.8631	14.445406302521949
0.8641	14.454414396577304
0.8651	14.463440117318616
0.8661	14.472484074111094
0.8671	14.481546887619722
0.8681	14.490629190333628
0.8691	14.499731627113293
0.8701	14.508854738550678
0.8711	14.517999314706264
0.8721	14.527166050882188
0.8731	14.536355653785503
0.8741	14.545568845797291
0.8751	14.554806365703511
0.8761	14.564068969461994
0.8771	14.573357431008182
0.8781	14.582672543091343
0.8791	14.592015118199424
0.8801	14.601386072765305
0.8811	14.610786654568031
0.8821	14.620217235354644
0.8831	14.62967868520535
0.8841	14.63917189807979
0.8851	14.648697792966617
0.8861	14.658257315099053
0.8871	14.667851437240879
0.8881	14.677481161048425
0.8891	14.68714751851416
0.8901	14.696851573498089
0.8911	14.706595289459123
0.8921	14.716379311779171
0.8931	14.72620432104891
0.8941	14.736071446820556
0.8951	14.745981856206086
0.8961	14.75593675582704
0.8971	14.76593739389253
0.8981	14.775985062415366
0.8991	14.786081099578121
0.9001	14.796226892261881
0.9011	14.80642512291227
0.9021	14.816676720600599
0.9031	14.826982377075716
0.9041	14.837343566815106
0.9051	14.8477618209965
0.9061	14.858238730713673
0.9071	14.868775950427978
0.9081	14.87937520167759
0.9091	14.890038277067962
0.9101	14.90076723086283
0.9111	14.911566240841838
0.9121	14.922434773358201
0.9131	14.93337475352
0.9141	14.944388189259888
0.9151	14.955477176462846
0.9161	14.96664390450825
0.9171	14.977890662268205
0.9181	14.9892198446085
0.9191	15.00063413352116
0.9201	15.012138944190976
0.9211	15.023733875625245
0.9221	15.035421548096323
0.9231	15.047204707287728
0.9241	15.059086232868943
0.9251	15.071069147838479
0.9261	15.083156628721218
0.9271	15.09535201671728
0.9281	15.10766104610265
0.9291	15.120086438887542
0.9301	15.132630417928855
0.9311	15.145296730156677
0.9321	15.15808932293914
0.9331	15.171012359362111
0.9341	15.184070235208576
0.9351	15.197267597466036
0.9361	15.210612420053202
0.9371	15.224107437313359
0.9381	15.23775693329506
0.9391	15.251566271951388
0.9401	15.265541134987464
0.9411	15.279687548853701
0.9421	15.294011914761096
0.9431	15.30852335661345
0.9441	15.323228277513552
0.9451	15.338132246781337
0.9461	15.353242901035019
0.9471	15.368568374351192
0.9481	15.384117344628685
0.9491	15.39989908587149
0.9501000000000001	15.415927376823452
0.9511000000000001	15.432208592380885
0.9521000000000001	15.448753426883705
0.9531000000000001	15.46557336085451
0.9541000000000001	15.482680713691048
0.9551000000000001	15.500088749735369
0.9561000000000001	15.51781532145049
0.9571000000000001	15.535871702553765
0.9581000000000001	15.554273711625166
0.9591000000000001	15.573038418736989
0.9601	15.59218428588185
0.9611	15.611733229286017
0.9621	15.63170608771732
0.9631	15.652124425615787
0.9641	15.673013052791084
0.9651	15.69439901897924
0.9661	15.716313726035196
0.9671	15.738788007237295
0.9681	15.761855967377107
0.9691	15.785555775296128
0.9701	15.809930120615284
0.9711	15.835025666301672
0.9721	15.860892490664869
0.9731	15.887587177015448
0.9741	15.915172948616089
0.9751	15.943720280649986
0.9761	15.973308103463424
0.9771	16.00402532229988
0.9781	16.035971841433874
0.9791	16.069264041273634
0.9801	16.10403343133794
0.9811	16.140429247156494
0.9821	16.178631665984238
0.9831	16.218845014788243
0.9841	16.26131334513131
0.9851	16.306331494213225
0.9861	16.354244898539218
0.9871	16.405492267162426
0.9881	16.46059762907906
0.9891	16.52024339788794
0.9901	16.585292318542923
0.9911	16.656884549573345
0.9921	16.736577437500134
0.9931	16.82652547320789
0.9941	16.92985132867826
0.9951	17.051484764411068
0.9961	17.19977885231813
0.9971	17.390367501563627
0.9981	17.6587474631185
0.9991	18.121378238921498
1.0001	21.38218613621445
